\relax 
\providecommand\babel@aux[2]{}
\@nameuse{bbl@beforestart}
\catcode `:\active 
\catcode `;\active 
\catcode `!\active 
\catcode `?\active 
\providecommand\hyper@newdestlabel[2]{}
\providecommand\HyperFirstAtBeginDocument{\AtBeginDocument}
\HyperFirstAtBeginDocument{\ifx\hyper@anchor\@undefined
\global\let\oldnewlabel\newlabel
\gdef\newlabel#1#2{\newlabelxx{#1}#2}
\gdef\newlabelxx#1#2#3#4#5#6{\oldnewlabel{#1}{{#2}{#3}}}
\AtEndDocument{\ifx\hyper@anchor\@undefined
\let\newlabel\oldnewlabel
\fi}
\fi}
\global\let\hyper@last\relax 
\gdef\HyperFirstAtBeginDocument#1{#1}
\providecommand\HyField@AuxAddToFields[1]{}
\providecommand\HyField@AuxAddToCoFields[2]{}
\babel@aux{french}{}
\newlabel{s1p}{{}{1}{}{Doc-Start}{}}
\newlabel{s1r}{{}{2}{}{Doc-Start}{}}
\newlabel{s1nbligne}{{1}{2}{}{Item.1}{}}
\newlabel{s1comment}{{2}{2}{}{Item.2}{}}
\newlabel{s1time}{{3}{2}{}{Item.3}{}}
\newlabel{s1nbchaine}{{4}{2}{}{Item.4}{}}
\newlabel{s1antisl}{{5}{2}{}{Item.5}{}}
\newlabel{s1dantisl}{{6}{3}{}{Item.6}{}}
\newlabel{s1printv}{{7}{3}{}{Item.7}{}}
\newlabel{s2p}{{}{5}{}{Item.11}{}}
\newlabel{s2r}{{}{6}{}{Item.11}{}}
\newlabel{s2nbvar}{{1}{6}{}{Item.12}{}}
\newlabel{s2nbaffect}{{2}{6}{}{Item.13}{}}
\newlabel{s2virgule}{{3}{6}{}{Item.14}{}}
\newlabel{s2plus}{{4}{6}{}{Item.15}{}}
\newlabel{s2diff}{{5}{6}{}{Item.16}{}}
\newlabel{s2virgplus}{{6}{7}{}{Item.17}{}}
\newlabel{s2nomvar}{{7}{7}{}{Item.18}{}}
\newlabel{s2fois}{{8}{7}{}{Item.19}{}}
\newlabel{s2type}{{9}{7}{}{Item.20}{}}
\newlabel{s3p}{{}{11}{}{Item.32}{}}
\newlabel{s3r}{{}{12}{}{Item.32}{}}
\newlabel{s3nom}{{1}{12}{}{Item.33}{}}
\newlabel{s3mult}{{2}{12}{}{Item.34}{}}
\newlabel{s3nbvar}{{3}{12}{}{Item.35}{}}
\newlabel{s3nbaffect}{{4}{12}{}{Item.36}{}}
\newlabel{s3entree}{{5}{12}{}{Item.37}{}}
\newlabel{s3but}{{6}{12}{}{Item.38}{}}
\newlabel{s3print}{{7}{12}{}{Item.39}{}}
\newlabel{s3constr}{{8}{12}{}{Item.40}{}}
\newlabel{s4p}{{}{17}{}{Item.53}{}}
\newlabel{s4r}{{}{18}{}{Item.53}{}}
\newlabel{s4nbvar}{{1}{18}{}{Item.54}{}}
\newlabel{s4nbaffect}{{2}{18}{}{Item.55}{}}
\newlabel{s4conv}{{3}{19}{}{Item.56}{}}
\newlabel{s4add-vs-virg}{{4}{19}{}{Item.57}{}}
\newlabel{s4type}{{5}{19}{}{Item.58}{}}
\newlabel{s4calcul}{{6}{19}{}{Item.59}{}}
\newlabel{s4priorite}{{7}{19}{}{Item.60}{}}
\newlabel{s4input}{{8}{19}{}{Item.61}{}}
\newlabel{s4conv2}{{9}{20}{}{Item.62}{}}
\newlabel{s4calcul2}{{10}{20}{}{Item.63}{}}
\newlabel{s4resultat}{{11}{20}{}{Item.64}{}}
\newlabel{s5p}{{}{23}{}{Item.72}{}}
\newlabel{s5r}{{}{24}{}{Item.72}{}}
\newlabel{s5nomprog}{{1}{24}{}{Item.73}{}}
\newlabel{s5nomvar}{{2}{24}{}{Item.74}{}}
\newlabel{s5input}{{3}{24}{}{Item.75}{}}
\newlabel{s5conv}{{4}{24}{}{Item.76}{}}
\newlabel{s5indent}{{5}{25}{}{Item.77}{}}
\newlabel{s5blocif}{{6}{25}{}{Item.78}{}}
\newlabel{s5butif}{{7}{25}{}{Item.79}{}}
\newlabel{s5nbbloc}{{8}{25}{}{Item.80}{}}
\newlabel{s5opcomp}{{9}{25}{}{Item.81}{}}
\newlabel{s5valresult}{{10}{25}{}{Item.82}{}}
\newlabel{s5blocresult}{{11}{25}{}{Item.83}{}}
\newlabel{s5ligneexec}{{12}{26}{}{Item.84}{}}
\newlabel{s6p}{{}{31}{}{Item.92}{}}
\newlabel{s6r}{{}{31}{}{Item.92}{}}
\newlabel{s6nomprog}{{1}{32}{}{Item.93}{}}
\newlabel{s6lignefonc}{{2}{32}{}{Item.94}{}}
\newlabel{s6typevar}{{3}{32}{}{Item.95}{}}
\newlabel{s6nomvar}{{4}{32}{}{Item.96}{}}
\newlabel{s6indent}{{5}{32}{}{Item.97}{}}
\newlabel{s6blocif}{{6}{32}{}{Item.98}{}}
\newlabel{s6blocfonc}{{7}{32}{}{Item.99}{}}
\newlabel{s6commentbloc}{{8}{32}{}{Item.100}{}}
\newlabel{s6opcomp}{{9}{32}{}{Item.101}{}}
\newlabel{s6conditiondiff}{{10}{32}{}{Item.102}{}}
\newlabel{s6lignesexec}{{11}{32}{}{Item.103}{}}
\newlabel{s6ligneseq}{{12}{32}{}{Item.104}{}}
\newlabel{s6lignesexec2}{{13}{32}{}{Item.105}{}}
\newlabel{s6logigramme}{{14}{32}{}{Item.106}{}}
\newlabel{s7p}{{}{35}{}{Item.115}{}}
\newlabel{s7r}{{}{35}{}{Item.115}{}}
\newlabel{s7nomprog}{{1}{36}{}{Item.116}{}}
\newlabel{s7typevar1}{{2}{36}{}{Item.117}{}}
\newlabel{s7varnone}{{3}{36}{}{Item.118}{}}
\newlabel{s7butnone}{{4}{36}{}{Item.119}{}}
\newlabel{s7trouvebloc}{{5}{36}{}{Item.120}{}}
\newlabel{s7blocwhile1a}{{6}{36}{}{Item.121}{}}
\newlabel{s7blocwhile1b}{{7}{36}{}{Item.122}{}}
\newlabel{s7blocwhile1c}{{8}{36}{}{Item.123}{}}
\newlabel{s7typevar2}{{9}{36}{}{Item.124}{}}
\newlabel{s7blocwhile2a}{{10}{36}{}{Item.125}{}}
\newlabel{s7blocwhile2c}{{11}{36}{}{Item.126}{}}
\newlabel{s7blocwhile2b}{{12}{36}{}{Item.127}{}}
\newlabel{s7blocwhile2d}{{13}{36}{}{Item.128}{}}
\newlabel{s7logigramme}{{14}{36}{}{Item.129}{}}
\newlabel{s7diffblocwhile}{{15}{36}{}{Item.130}{}}
\newlabel{s8p}{{}{39}{}{Item.143}{}}
\newlabel{s8r}{{}{39}{}{Item.143}{}}
\newlabel{s8typevar}{{1}{40}{}{Item.144}{}}
\newlabel{s8liste01}{{2}{40}{}{Item.145}{}}
\newlabel{s8liste02}{{3}{40}{}{Item.146}{}}
\newlabel{s8liste03}{{4}{40}{}{Item.147}{}}
\newlabel{s8outofrange}{{5}{40}{}{Item.148}{}}
\newlabel{s8none}{{6}{40}{}{Item.149}{}}
\newlabel{s8in}{{7}{40}{}{Item.150}{}}
\newlabel{s8blocstype}{{8}{40}{}{Item.151}{}}
\newlabel{s8logigramme}{{9}{40}{}{Item.152}{}}
\newlabel{s8butwhile}{{10}{40}{}{Item.153}{}}
\newlabel{s8ligneswhile}{{11}{40}{}{Item.154}{}}
\newlabel{s8testfin}{{12}{40}{}{Item.155}{}}
\newlabel{s8tracage01}{{13}{40}{}{Item.156}{}}
\newlabel{s8tracage02}{{14}{40}{}{Item.157}{}}
\newlabel{s8remove1}{{15}{40}{}{Item.158}{}}
\newlabel{s8remove2}{{16}{40}{}{Item.159}{}}
\newlabel{s8coder}{{}{41}{}{Item.163}{}}
\newlabel{s9p}{{}{43}{}{Item.171}{}}
\newlabel{s9r}{{}{43}{}{Item.171}{}}
\newlabel{s9nbvar}{{1}{44}{}{Item.172}{}}
\newlabel{s9typevar}{{2}{44}{}{Item.173}{}}
\newlabel{s9indentation}{{3}{44}{}{Item.174}{}}
\newlabel{s9lignesblocs}{{4}{44}{}{Item.175}{}}
\newlabel{s9for1but}{{5}{44}{}{Item.176}{}}
\newlabel{s9for1nbiteration}{{6}{44}{}{Item.177}{}}
\newlabel{s9for1tracage}{{7}{44}{}{Item.178}{}}
\newlabel{s9_question_var}{{8}{44}{}{Item.179}{}}
\newlabel{s9for2but}{{9}{44}{}{Item.180}{}}
\newlabel{s9butrange}{{10}{44}{}{Item.181}{}}
\newlabel{s9for2nbiteration}{{11}{44}{}{Item.182}{}}
\newlabel{s9for2tracage}{{12}{44}{}{Item.183}{}}
\newlabel{s9logigramme}{{13}{44}{}{Item.184}{}}
\newlabel{s9input}{{14}{44}{}{Item.185}{}}
\newlabel{s9intinput}{{15}{44}{}{Item.186}{}}
\newlabel{s9ajoutdebut}{{16}{44}{}{Item.187}{}}
\newlabel{s10p}{{}{50}{}{Item.202}{}}
\newlabel{s10r}{{}{50}{}{Item.202}{}}
\newlabel{s10blocs}{{1}{51}{}{Item.203}{}}
\newlabel{s10f1typeval}{{2a}{51}{}{Item.205}{}}
\newlabel{s10f1appel}{{2b}{51}{}{Item.206}{}}
\newlabel{s10f1parentheses}{{2c}{51}{}{Item.207}{}}
\newlabel{s10f2typeval1}{{3a}{51}{}{Item.209}{}}
\newlabel{s10f2typeval2}{{3b}{51}{}{Item.210}{}}
\newlabel{s10f2portee}{{3c}{51}{}{Item.211}{}}
\newlabel{s10f2parentheses}{{3d}{51}{}{Item.212}{}}
\newlabel{s10f3nbparam}{{4a}{51}{}{Item.214}{}}
\newlabel{s10f3typeval1}{{4b}{51}{}{Item.215}{}}
\newlabel{s10f3typeval2}{{4c}{51}{}{Item.216}{}}
\newlabel{s10f3appel}{{4d}{51}{}{Item.217}{}}
\newlabel{s10f4nom}{{5a}{51}{}{Item.219}{}}
\newlabel{s10f4blocs}{{5b}{51}{}{Item.220}{}}
\newlabel{s10f4condition_if}{{5c}{51}{}{Item.221}{}}
\newlabel{s10f4construction_mot}{{5d}{51}{}{Item.222}{}}
\newlabel{s10f4ligne_exec}{{5e}{51}{}{Item.223}{}}
\newlabel{s10f4tracage}{{5f}{52}{}{Item.224}{}}
\newlabel{s10f4portee}{{5g}{52}{}{Item.225}{}}
\newlabel{s10trace}{{6}{52}{}{Item.226}{}}
\newlabel{s10login1}{{7}{52}{}{Item.227}{}}
\newlabel{s10login2}{{8}{52}{}{Item.228}{}}
\newlabel{s10login3}{{9}{52}{}{Item.229}{}}
\newlabel{LastPage}{{}{55}{}{page.55}{}}
\xdef\lastpage@lastpage{55}
\xdef\lastpage@lastpageHy{55}
\gdef\minted@oldcachelist{,
  default.pygstyle,
  B0B0DD12F54C0E28CF7BF63508D118C0E8F2A6A1A235E717630711AA3D2642D0.pygtex,
  2A449BAADD9F57DD8DD208626A84EF092E88A7F4CDF45E530F878AACF0B9FCA3.pygtex,
  87BE54E3F205DBA776613C1E9D11246A0F0464C88416171279FEB73991A4B74B.pygtex,
  8F937AE5AB90AE390736C92B73FBF8DF3EF9B137535ACC1CC18EB4EC3092C48E.pygtex,
  AFF90929721B022B11BD6E54697F606343062DFE18A31DA1844893325BA48339.pygtex,
  DDEEE55E7A93B87AE7B888424C32BCD56F7567B5D83FDB9E8CEA7D0503234FEF.pygtex,
  61E5932F5F491E2F834D6070C812487490A6770E0A382E3532F923EA9C2369A7.pygtex,
  AC21BB7D09CFAAC83B6F0BB7CDF0C0DADAA81F15BC82DDA88AAB6620E53CFE3D.pygtex,
  19CF0285E8832989E3CBF6AADC8549252E73C743AE1EFE9313BE64B4321E9DBE.pygtex,
  32163E390FD10B98A5C47F596263EC59F83AF4501E5EE58FB1EB4CE56502311B.pygtex,
  8C33C6A6FFAF576DC458F386CE7E15FC47FAD8022E3C74D14EE425043B3B0F8B.pygtex,
  80E2DDFC3B00A6EF38EB88A5B14180D890BA9D1E90A50462315D8844E6B6C245.pygtex,
  D77CD4A7B01A54D8533EB14F5683FCDF59BA3C74498B0855C50BC71AAF57A596.pygtex,
  F6E0BB67319D821C32BD95F0AF255AEE29BEC5E6275B7807F17B43E6FC0D6028.pygtex,
  3B3184C55697B497FFBA434FE84DAF475EF61AF0F7CC42A7BA0C7304A8170457.pygtex,
  37EFEDD1307C69267DCC880FC3FF368DA3E23A6E1BE4C46D9624A8A835042933.pygtex,
  7AC348FB9EFEF32ECE6BE031B9B99A0CFBB7376CCC299A3B392DB2864776F93E.pygtex,
  2337FF188275C2CCAF2243D33E74A3E805A88668FF978708B2EC4E40E03A3E80.pygtex,
  9CFE66E1F7A0CB106076A20719C6372D05A88668FF978708B2EC4E40E03A3E80.pygtex,
  FA973115B9D0AE6C42863F540E20524A05A88668FF978708B2EC4E40E03A3E80.pygtex,
  88BEAE7D81AB7A9321E9408FC1F273D505A88668FF978708B2EC4E40E03A3E80.pygtex,
  0EF8CE54597AFF2920EE6CA1B3F61D2605A88668FF978708B2EC4E40E03A3E80.pygtex,
  C31CCC0ECC08F271625D03B8709C62ED05A88668FF978708B2EC4E40E03A3E80.pygtex,
  B885B05C4C488E66F71849F275BD70E805A88668FF978708B2EC4E40E03A3E80.pygtex,
  0EF8CE54597AFF2920EE6CA1B3F61D2605A88668FF978708B2EC4E40E03A3E80.pygtex,
  9A06C1268BEF3B2FA928440C28CB0885463AC9938FCBAE47D3B6249CF48B9CE5.pygtex,
  74AD55BB8DD1682D2434D7CB07BC1E7C13A4CEB95BB32EB171503519607EE3DB.pygtex,
  5D8CA408AA1EEF06449602808ABABD9B2C6AF8665514FDDE0C216188ACB22DF3.pygtex,
  B3B80E9F0C0785E8187D1C354F360DBBFE5B3A69F6D57BFD7AB612349F5EE69F.pygtex,
  F793F587B43D4C3075DE8D3622B7DC5CF72B37185197BFCD1E216C509C4756BA.pygtex,
  3DA67DA2F437342CFAAC477B079AF370588A055A833A8B9CF21C74FEE05C9289.pygtex,
  5333ACE7A8AB29443D471277B004E7CE87C074EA24421278E15B4DC1B92E607E.pygtex,
  3F1102DB775370AF9559BACFB52E45E6994EAFD99430992ECF722E2D0DC5E2CE.pygtex,
  0D292C60D91B2A74632F2DE3E32ACAB6E24D1B507C1E6E884BB584E9382C5265.pygtex,
  43F88C08DEED0C404482AD7D19C7C4A405A88668FF978708B2EC4E40E03A3E80.pygtex,
  07F789F100CF599356A978FE921BB45D05A88668FF978708B2EC4E40E03A3E80.pygtex,
  86E9DD10AAFC3DF2AC7CD97FFBC3576905A88668FF978708B2EC4E40E03A3E80.pygtex,
  A47652DD55340DF9497FA60D74B3F73C05A88668FF978708B2EC4E40E03A3E80.pygtex,
  40BC32362472C7AD96AF2C4BF29D1D7505A88668FF978708B2EC4E40E03A3E80.pygtex,
  441EC5804E70BA01A13BA3493620F4E5E996EAEE3830225B7383098E6227365E.pygtex,
  D9F7A906CCEE44A48F9F0AA55A9B051C06860B0054A5CE60B6B0F9605E8B8CAE.pygtex,
  5A586F514209F3454FFDE393FD9E273D443446188D23C071A857CC8A56E14256.pygtex,
  1B8DDE0AACBFB392ABD330C614E061A9BC41C865B9FB2388F0AB2C054560166B.pygtex}
\gdef \@abspage@last{55}
